{
  "schema": {
    "name": "AGSi",
    "version": "1.0.0"
  },
  "agsiFile": {
    "title": "Stage 4 Sitewide Ground models",
    "projectTitle": "Gotham City Metro Purple Line, C999 Geotechnical Package X",
    "description": "Geological model and geotechnical design models produced for Stage 4 design",
    "producedBy": "ABC Consultants",
    "fileUUID": "98e17952-c99d-4d87-8f01-8ba75d29b6ad",
    "revision": "P1",
    "date": "2019-05-23",
    "status": "Final"
  },
  "agsiProject": {
    "name": "C999 Geotechnical Package X",
    "producer": "ABC Consultants",
    "client": "XYZ D&B Contractor",
    "producerProjectID": "12345",
    "remarks": "Some remarks if required"
  },
  "agsiModel": [
    {
      "modelID": "1fb599ab-c040-408d-aba0-85b18bb506c2",
      "name": "Example simple geological model",
      "type": "Geological model",
      "category": "Observational",
      "domain": "Engineering geology",
      "usageDesc": "Visualisation only",
      "agsiModelBoundary": {
        "minEasting": 12000,
        "maxEasting": 13000,
        "minNorthing": 5000,
        "maxNorthing": 6000,
        "baseElevation": -25
      },
      "agsiModelSubset": [
        {
          "subsetID": "GEOL-VOL",
          "description": "Geotechnical unit volumes (from surfaces)"
        }
      ],
      "agsiModelElement": [
        {
          "elementID": "MG",
          "description": "Made Ground",
          "type": "Geological unit",
          "subsetID": "GEOL-VOL",
          "geometryForm": "Volume from surfaces",
          "geometryID": "Geol-MG",
		  "parameterSetID":"MG"
        },
        {
          "elementID": "ALV",
          "description": "Alluvium",
          "type": "Geological unit",
          "subsetID": "GEOL-VOL",
          "geometryForm": "Volume from surfaces",
          "geometryID": "Geol-ALV",
		  "parameterSetID":"ALV"
        }
      ]
    }
  ],
  "agsiGeometry": {
    "geometrySetID": "f402948e-d5f4-4b1c-923b-2ce8578bb5c3",
    "agsiGeometryFromFile": [
      {
        "geometryID": "Geol-MG",
        "description": "Top of MG",
        "geometryType": "Surface",
        "fileFormat": "PLY",
        "fileFormatVersion": "LandXML-1.2",
        "fileURI": "geometry/geom-geol-MG-top.ply"
      },
      {
        "geometryID": "Geol-ALV",
        "description": "Top of ALV / Bottom of MG",
        "geometryType": "Surface",
        "fileFormat": "PLY",
        "fileFormatVersion": "LandXML-1.2",
        "fileURI": "geometry/geom-geol-ALV-top.ply"
      }
    ]
  },
  "agsiData": [
    {
      "dataSetID": "40b785d0-547c-41c5-9b36-3cd31126ecb0",
      "description": "Example data file",
      "codeDictionary": "https://gitlab.com/AGS-DFWG-Web/ASGi/agsCodeList.htm",
      "agsiDataParameterSet": [
        {
          "parameterSetID": "MG",
          "description": "Made Ground",
          "agsiDataParameterValue": [
            {
              "codeID": "UWb",
              "caseID": "CHAR",
              "valueNumeric": 19
            },
            {
              "codeID": "PHIpk",
              "caseID": "CHAR",
              "valueNumeric": 30
            }
          ]
        },
        {
          "parameterSetID": "ALV",
          "description": "Alluvium",
          "agsiDataParameterValue": [
            {
              "codeID": "UWb",
              "caseID": "CHAR",
              "valueNumeric": 20
            },
            {
              "codeID": "CU",
              "caseID": "CHAR",
              "valueNumeric": 60
            }
          ]
        }
      ],
      "agsiDataCase": [
        {
          "caseID": "CHAR",
          "description": "Characteristic"
        }
      ],
      "agsiDataCode": [
        {
          "codeID": "UWb",
          "description": "Bulk unit weight",
          "units": "kN/m3"
        },
        {
          "codeID": "CU",
          "description": "Undrained shear strength",
          "units": "kN/m2"
        },
        {
          "codeID": "PHIpk",
          "description": "Peak effective angle of shearing resistance",
          "units": "deg"
        }
      ]
    }
  ]
}